…
## draw a lot of samples and analyze

``` r
boot_straps = 
  tibble(strap_number = 1:100) |> 
  mutate(strap_sample = map(strap_number, \(i) boot_sample(sim_df_nonconst)))

boot_straps |>
  pull(strap_sample) |>
  nth(1) |>
  arrange(x) # to see what is in 1st iteration, etc. samples are different.
```

    ## # A tibble: 250 × 3
    ##         x   error       y
    ##     <dbl>   <dbl>   <dbl>
    ##  1 -1.89   1.62   -2.04  
    ##  2 -1.89   1.62   -2.04  
    ##  3 -1.21  -0.781  -2.43  
    ##  4 -1.21  -0.781  -2.43  
    ##  5 -1.00   0.832  -0.169 
    ##  6 -0.989 -1.97   -2.93  
    ##  7 -0.914 -0.908  -1.65  
    ##  8 -0.606 -0.106   0.0774
    ##  9 -0.536  0.0227  0.413 
    ## 10 -0.524 -0.536  -0.106 
    ## # ℹ 240 more rows
…
``` r
boot_straps = 
  sim_df_nonconst |> 
  modelr::bootstrap(n = 1000)

boot_straps |> pull(strap) |> nth(1)
```

    ## <resample [250 x 3]> 245, 162, 217, 106, 95, 219, 214, 249, 25, 34, ...

``` r
boot_straps |> pull(strap) |> nth(1) |> as_tibble()
```

    ## # A tibble: 250 × 3
    ##         x  error      y
    ##     <dbl>  <dbl>  <dbl>
    ##  1  2.16   6.18  14.7  
    ##  2  0.761  0.373  4.66 
    ##  3  0.691 -0.366  3.71 
    ##  4  2.77   1.24  11.5  
    ##  5  2.59  -4.39   5.37 
    ##  6  1.64   1.82   8.75 
    ##  7 -0.370 -0.165  0.724
    ##  8  0.834  0.217  4.72 
    ##  9  1.62   0.190  7.05 
    ## 10  0.946 -0.498  4.34 
    ## # ℹ 240 more rows
…
