…
    ## [1] 0.289051

the smooth model seems to do better here.

## crossv_mc

this does it multiple times for you

``` r
cv_df = crossv_mc(nonlin_df, 100)

cv_df |> pull(train) |> nth(3) |> as_tibble()
```

    ## # A tibble: 79 × 3
    ##       id     x      y
    ##    <int> <dbl>  <dbl>
    ##  1     1 0.266  1.11 
    ##  2     2 0.372  0.764
    ##  3     3 0.573  0.358
    ##  4     4 0.908 -3.04 
    ##  5     5 0.202  1.33 
    ##  6     6 0.898 -1.99 
    ##  7     7 0.945 -3.27 
    ##  8    11 0.206  1.63 
    ##  9    12 0.177  0.836
    ## 10    13 0.687 -0.291
    ## # ℹ 69 more rows
…
